<?xml version="1.0" encoding="UTF-8" standalone="no"?>
<svg
   width="64"
   height="64"
   version="1.1"
   id="svg112"
   sodipodi:docname="lynx-installer.svg"
   inkscape:version="1.2 (dc2aeda, 2022-05-15)"
   xmlns:inkscape="http://www.inkscape.org/namespaces/inkscape"
   xmlns:sodipodi="http://sodipodi.sourceforge.net/DTD/sodipodi-0.dtd"
   xmlns:xlink="http://www.w3.org/1999/xlink"
   xmlns="http://www.w3.org/2000/svg"
   xmlns:svg="http://www.w3.org/2000/svg">
  <defs
     id="defs116">
    <linearGradient
       inkscape:collect="always"
       id="linearGradient2457">
      <stop
         style="stop-color:#d35400;stop-opacity:1;"
         offset="0"
         id="stop2453" />
      <stop
         style="stop-color:#fad55c;stop-opacity:1;"
         offset="1"
         id="stop2455" />
    </linearGradient>
    <linearGradient
       inkscape:collect="always"
       xlink:href="#linearGradient2457"
       id="linearGradient2459"
       x1="42"
       y1="1107.5"
       x2="55"
       y2="1107.5"
       gradientUnits="userSpaceOnUse" />
  </defs>
  <sodipodi:namedview
     id="namedview114"
     pagecolor="#ffffff"
     bordercolor="#000000"
     borderopacity="0.25"
     inkscape:showpageshadow="2"
     inkscape:pageopacity="0.0"
     inkscape:pagecheckerboard="0"
     inkscape:deskcolor="#d1d1d1"
     showgrid="false"
     inkscape:zoom="8.359375"
     inkscape:cx="24.04486"
     inkscape:cy="31.401869"
     inkscape:window-width="1366"
     inkscape:window-height="707"
     inkscape:window-x="0"
     inkscape:window-y="27"
     inkscape:window-maximized="1"
     inkscape:current-layer="svg112" />
  <g
     transform="translate(0 -1058.5)"
     id="g110">
    <circle
       transform="rotate(-15)"
       cx="-251.33"
       cy="1061.6"
       fill="#e0e0e0"
       r="27"
       id="circle90" />
    <circle
       cx="32"
       cy="1090.5"
       r="10"
       fill="#bdbdbd"
       id="circle92" />
    <circle
       cx="32"
       cy="1090.5"
       r="5"
       fill="#424242"
       id="circle94"
       style="fill-opacity:1;fill:#424242" />
    <rect
       x="44"
       y="1089.5"
       width="9"
       height="10"
       ry="1"
       fill="#4a606a"
       id="rect96" />
    <path
       d="m 43,1097.5 c -0.554,0 -1,0.446 -1,1 v 16 c 0,1.662 1.338,3 3,3 h 7 c 1.662,0 3,-1.338 3,-3 v -16 c 0,-0.554 -0.446,-1 -1,-1 z"
       fill="#f6744a"
       id="path98"
       inkscape:label="path98"
       style="fill-opacity:1;fill:url(#linearGradient2459)" />
    <g
       fill="#fff"
       id="g106">
      <rect
         x="45"
         y="1100.5"
         width="7"
         height="1"
         ry=".5"
         id="rect100" />
      <rect
         x="46"
         y="1102.5"
         width="5"
         height="1"
         ry=".453"
         id="rect102" />
      <rect
         x="47"
         y="1104.5"
         width="3"
         height="1"
         ry=".453"
         id="rect104" />
    </g>
    <path
       d="M46 1091.5h1v5h-1zm4 0h1v5h-1zm-2 2h1v3h-1z"
       fill="#ffd54f"
       id="path108" />
  </g>
</svg>
